<svg id="그룹_592" data-name="그룹 592" xmlns="http://www.w3.org/2000/svg" xmlns:xlink="http://www.w3.org/1999/xlink" width="32" height="32" viewBox="0 0 32 32">
  <defs>
    <clipPath id="clip-path">
      <rect id="사각형_231" data-name="사각형 231" width="32" height="32" fill="#fff"/>
    </clipPath>
  </defs>
  <g id="그룹_591" data-name="그룹 591" clip-path="url(#clip-path)">
    <path id="패스_135" data-name="패스 135" d="M14.119,21.219H6a1.215,1.215,0,1,1,0-2.43h7.283l2.364-6.2a1.634,1.634,0,0,1,1.384-1.179,1.694,1.694,0,0,1,1.616.986l2.575,4.739a1.084,1.084,0,0,0,.651.261h5.467a1.215,1.215,0,1,1,0,2.43H21.871a3.3,3.3,0,0,1-2.786-1.53l-1.773-3.262-2.059,5.4a1.214,1.214,0,0,1-1.135.782m3.817-7.811,0,0,0,0" transform="translate(-0.908 -2.166)" fill="#fff"/>
    <path id="패스_136" data-name="패스 136" d="M26.734,32H5.266A5.272,5.272,0,0,1,0,26.734V5.266A5.272,5.272,0,0,1,5.266,0H26.734A5.272,5.272,0,0,1,32,5.266V26.734A5.272,5.272,0,0,1,26.734,32M5.266,2.43A2.839,2.839,0,0,0,2.43,5.266V26.734A2.839,2.839,0,0,0,5.266,29.57H26.734a2.839,2.839,0,0,0,2.835-2.835V5.266A2.839,2.839,0,0,0,26.734,2.43Z" fill="#fff"/>
  </g>
</svg>
