<svg xmlns="http://www.w3.org/2000/svg" xmlns:xlink="http://www.w3.org/1999/xlink" width="19.94" height="15.756" viewBox="0 0 19.94 15.756">
  <defs>
    <clipPath id="clip-path">
      <rect id="사각형_224" data-name="사각형 224" width="19.94" height="15.756" fill="none"/>
    </clipPath>
  </defs>
  <g id="그룹_574" data-name="그룹 574" transform="translate(0 0)" opacity="0.997">
    <g id="그룹_573" data-name="그룹 573" transform="translate(0 0)" clip-path="url(#clip-path)">
      <path id="패스_109" data-name="패스 109" d="M24.046,27.214a.726.726,0,0,1,0-1.451l3.74,0h0a.726.726,0,0,1,0,1.451l-3.74,0Z" transform="translate(-12.037 -13.296)" fill="#fff"/>
      <path id="패스_110" data-name="패스 110" d="M7.92,27.233a.726.726,0,0,1,0-1.451l3.74-.005h0a.726.726,0,0,1,0,1.451l-3.74.005Z" transform="translate(-3.713 -13.305)" fill="#fff"/>
      <path id="사각형_223" data-name="사각형 223" d="M.726,0h0a.725.725,0,0,1,.725.725V6.081a.726.726,0,0,1-.726.726h0A.725.725,0,0,1,0,6.081V.726A.726.726,0,0,1,.726,0Z" transform="translate(9.171 5.363)" fill="#fff"/>
      <path id="패스_111" data-name="패스 111" d="M17.882,27.5a2.366,2.366,0,0,1,0-4.732h0a2.366,2.366,0,0,1,0,4.732Zm0-3.28h0a.914.914,0,0,0,0,1.829h0a.914.914,0,1,0,0-1.829" transform="translate(-8.009 -11.753)" fill="#fff"/>
      <path id="패스_112" data-name="패스 112" d="M2.365,27.518a2.366,2.366,0,0,1,0-4.732h0a2.366,2.366,0,0,1,0,4.732Zm0-3.28h0a.914.914,0,0,0,0,1.829h0a.914.914,0,0,0,0-1.829" transform="translate(0 -11.762)" fill="#fff"/>
      <path id="패스_113" data-name="패스 113" d="M33.8,27.482a2.366,2.366,0,0,1,0-4.732h0a2.366,2.366,0,0,1,0,4.732Zm0-3.281h0a.915.915,0,0,0,0,1.829h0a.915.915,0,0,0,0-1.829" transform="translate(-16.226 -11.743)" fill="#fff"/>
      <path id="패스_114" data-name="패스 114" d="M17.025,6.612H10.252A3.148,3.148,0,0,1,7.107,3.467V3.145A3.148,3.148,0,0,1,10.252,0h6.773A3.148,3.148,0,0,1,20.17,3.145v.322a3.148,3.148,0,0,1-3.145,3.145m-6.773-5.16A1.7,1.7,0,0,0,8.558,3.145v.322A1.7,1.7,0,0,0,10.252,5.16h6.773a1.7,1.7,0,0,0,1.693-1.693V3.145a1.7,1.7,0,0,0-1.693-1.693Z" transform="translate(-3.668 0)" fill="#fff"/>
    </g>
  </g>
</svg>