<svg xmlns="http://www.w3.org/2000/svg" xmlns:xlink="http://www.w3.org/1999/xlink" width="22.956" height="15.756" viewBox="0 0 22.956 15.756">
  <defs>
    <clipPath id="clip-path">
      <rect id="사각형_225" data-name="사각형 225" width="22.956" height="15.756" fill="none"/>
    </clipPath>
  </defs>
  <g id="그룹_576" data-name="그룹 576" transform="translate(0 0)" opacity="0.997">
    <g id="그룹_575" data-name="그룹 575" transform="translate(0 0)" clip-path="url(#clip-path)">
      <path id="패스_115" data-name="패스 115" d="M34.93,21.156A.931.931,0,0,1,34,20.225V15.158a.931.931,0,0,1,1.861,0v5.068a.931.931,0,0,1-.931.931" transform="translate(-12.905 -5.4)" fill="#fff"/>
      <path id="패스_116" data-name="패스 116" d="M9.431,21.156a.931.931,0,0,1-.931-.931V15.158a.931.931,0,0,1,1.861,0v5.068a.931.931,0,0,1-.931.931" transform="translate(-3.226 -5.4)" fill="#fff"/>
      <path id="패스_117" data-name="패스 117" d="M26.43,18.859a.931.931,0,0,1-.931-.931V9.1a.931.931,0,1,1,1.861,0v8.823a.931.931,0,0,1-.931.931" transform="translate(-9.678 -3.102)" fill="#fff"/>
      <path id="패스_118" data-name="패스 118" d="M17.93,15.756A.931.931,0,0,1,17,14.825V.931a.931.931,0,0,1,1.861,0V14.825a.931.931,0,0,1-.931.931" transform="translate(-6.452 0)" fill="#fff"/>
      <path id="패스_119" data-name="패스 119" d="M.931,19.156A.931.931,0,0,1,0,18.225V9.888a.931.931,0,0,1,1.861,0v8.337a.931.931,0,0,1-.931.931" transform="translate(0 -3.4)" fill="#fff"/>
    </g>
  </g>
</svg>