<svg xmlns="http://www.w3.org/2000/svg" xmlns:xlink="http://www.w3.org/1999/xlink" width="29.291" height="18.543" viewBox="0 0 29.291 18.543">
  <defs>
    <clipPath id="clip-path">
      <rect id="사각형_484" data-name="사각형 484" width="29.291" height="18.543" fill="none"/>
    </clipPath>
  </defs>
  <g id="그룹_734" data-name="그룹 734" transform="translate(0 0)">
    <g id="그룹_733" data-name="그룹 733" transform="translate(0 0)" clip-path="url(#clip-path)">
      <path id="패스_185" data-name="패스 185" d="M25.564,12.547H3.727A3.731,3.731,0,0,1,0,8.82V3.727A3.731,3.731,0,0,1,3.727,0H25.564a3.732,3.732,0,0,1,3.727,3.727V8.82a3.732,3.732,0,0,1-3.727,3.727M3.727,1.465A2.265,2.265,0,0,0,1.464,3.727V8.82a2.265,2.265,0,0,0,2.262,2.262H25.564A2.265,2.265,0,0,0,27.826,8.82V3.727a2.265,2.265,0,0,0-2.262-2.262Z" transform="translate(0 0)" fill="#666"/>
      <rect id="사각형_480" data-name="사각형 480" width="21.647" height="1.465" transform="translate(3.822 7.291)" fill="#666"/>
      <rect id="사각형_481" data-name="사각형 481" width="1.465" height="3.705" transform="translate(8.361 14.838)" fill="#345729"/>
      <rect id="사각형_482" data-name="사각형 482" width="1.465" height="3.705" transform="translate(13.913 14.838)" fill="#345729"/>
      <rect id="사각형_483" data-name="사각형 483" width="1.465" height="3.705" transform="translate(19.465 14.838)" fill="#345729"/>
    </g>
  </g>
</svg>
