<svg xmlns="http://www.w3.org/2000/svg" width="11.868" height="8.475" viewBox="0 0 11.868 8.475">
  <g id="그룹_268" data-name="그룹 268" transform="translate(2.118 6.357) rotate(-90)">
    <path id="패스_107" data-name="패스 107" d="M4.238,0,2.251,1.788,0,3.815" transform="translate(0)" fill="none" stroke="#fff" stroke-linecap="round" stroke-width="3"/>
    <line id="선_2" data-name="선 2" x1="4.238" y1="3.815" transform="translate(0 3.815)" fill="none" stroke="#fff" stroke-linecap="round" stroke-width="3"/>
  </g>
</svg>
